sim/tests/sub/streamwave.vcd
$date
	Fri Feb 27 21:19:23 2015
$end
$version
	Icarus Verilog
$end
$timescale
	1ps
$end
$scope module userlogic_test $end
$var wire 32 ! data_out [31:0] $end
$var wire 15 " input_buffer_addr [14:0] $end
$var wire 15 # output_buffer_addr [14:0] $end
$var wire 32 $ ul_instr [31:0] $end
$var wire 32 % ul_instr_addr [31:0] $end
$var wire 32 & ul_read_addr [31:0] $end
$var wire 32 ' ul_read_data [31:0] $end
$var wire 32 ( ul_status [31:0] $end
$var wire 32 ) ul_test [31:0] $end
$var wire 32 * ul_write_addr [31:0] $end
$var wire 32 + ul_write_data [31:0] $end
$var wire 16 , ul_write_data_hi [15:0] $end
$var wire 16 - ul_write_data_lo [15:0] $end
$var wire 2 . ul_write_en_hi [1:0] $end
$var wire 2 / ul_write_en_lo [1:0] $end
$var reg 1 0 clk $end
$var reg 32 1 cycle_count [32:1] $end
$var integer 32 2 dump_vars [31:0] $end
$var reg 8192 3 dump_vars_filename [8192:1] $end
$var integer 32 4 i [31:0] $end
$var reg 10 5 image_n_columns [9:0] $end
$var reg 10 6 image_n_rows [9:0] $end
$var reg 8192 7 input_buffer_filename [8192:1] $end
$var reg 8192 8 instr_mem_filename [8192:1] $end
$var reg 32 9 num_cycles [32:1] $end
$var reg 33 : out_end_addr [32:0] $end
$var reg 33 ; out_start_addr [32:0] $end
$var integer 32 < outfile [31:0] $end
$var reg 8192 = output_buffer_filename [8192:1] $end
$var reg 15 > read_addr [14:0] $end
$var integer 32 ? read_input_buffer [31:0] $end
$var integer 32 @ read_instr_mem [31:0] $end
$var integer 32 A result [31:0] $end
$var reg 1 B rst_n $end
$var reg 8192 C test_result_filename [8192:1] $end
$var reg 32 D ul_command [31:0] $end
$var integer 32 E write_output_buffer [31:0] $end
$var integer 32 F write_test_result [31:0] $end
$scope module instr_mem $end
$var wire 14 G addr [13:0] $end
$var wire 1 H clk $end
$var wire 32 I din [31:0] $end
$var wire 1 J we $end
$var reg 32 K dout [31:0] $end
$upscope $end
$scope module input_buffer $end
$var wire 15 L addr [14:0] $end
$var wire 1 H clk $end
$var wire 32 M din [31:0] $end
$var wire 1 N we $end
$var reg 32 O dout [31:0] $end
$upscope $end
$scope module output_buffer $end
$var wire 15 P addr [14:0] $end
$var wire 1 H clk $end
$var wire 32 Q din [31:0] $end
$var wire 4 R we [3:0] $end
$var reg 32 S dout [31:0] $end
$scope begin column[0] $end
$upscope $end
$scope begin column[1] $end
$upscope $end
$scope begin column[2] $end
$upscope $end
$scope begin column[3] $end
$upscope $end
$upscope $end
$scope module ul $end
$var wire 1 T addr_cmd $end
$var wire 1 U addr_iobuf $end
$var wire 1 V addr_local $end
$var wire 1 W addr_status $end
$var wire 1 X addr_test $end
$var wire 1 H clk $end
$var wire 32 Y command [31:0] $end
$var wire 32 Z instr [31:0] $end
$var wire 32 [ instr_addr [31:0] $end
$var wire 32 \ mips_addr [31:0] $end
$var wire 32 ] mips_local_read_data [31:0] $end
$var wire 32 ^ mips_pc [31:0] $end
$var wire 32 _ mips_read_data [31:0] $end
$var wire 1 ` mips_read_en $end
$var wire 4 a mips_write_en [3:0] $end
$var wire 32 b read_addr_hi [31:0] $end
$var wire 32 c read_addr_lo [31:0] $end
$var wire 32 d read_data [31:0] $end
$var wire 16 e read_data_hi [15:0] $end
$var wire 16 f read_data_lo [15:0] $end
$var wire 1 g rst_n $end
$var wire 32 h status [31:0] $end
$var wire 32 i test [31:0] $end
$var wire 32 j write_addr_hi [31:0] $end
$var wire 32 k write_addr_lo [31:0] $end
$var wire 32 l write_data [31:0] $end
$var wire 16 m write_data_hi [15:0] $end
$var wire 16 n write_data_lo [15:0] $end
$var wire 2 o write_en_hi [1:0] $end
$var wire 2 p write_en_lo [1:0] $end
$var reg 32 q cmd_d [31:0] $end
$var reg 1 r read_cmd_d $end
$var reg 1 s read_iobuf_d $end
$var reg 32 t status_reg [31:0] $end
$var reg 32 u test_reg [31:0] $end
$scope module cpu $end
$var wire 32 v alu_op_x_ex [31:0] $end
$var wire 32 w alu_op_x_id [31:0] $end
$var wire 32 x alu_op_y_ex [31:0] $end
$var wire 32 y alu_op_y_id [31:0] $end
$var wire 1 z alu_op_y_zero_ex $end
$var wire 4 { alu_opcode_ex [3:0] $end
$var wire 4 | alu_opcode_id [3:0] $end
$var wire 1 } alu_overflow $end
$var wire 32 ~ alu_result_ex [31:0] $end
$var wire 32 !" alu_result_mem [31:0] $end
$var wire 1 H clk $end
$var wire 1 "" en $end
$var wire 1 #" en_if $end
$var wire 32 $" instr [31:0] $end
$var wire 32 %" instr_id [31:0] $end
$var wire 30 &" instr_number_id [29:0] $end
$var wire 32 '" instr_sav [31:0] $end
$var wire 32 (" jr_pc_id [31:0] $end
$var wire 1 )" jump_branch_id $end
$var wire 1 *" jump_reg_id $end
$var wire 1 +" jump_target_id $end
$var wire 32 ," mem_addr [31:0] $end
$var wire 1 -" mem_byte_ex $end
$var wire 1 ." mem_byte_id $end
$var wire 1 /" mem_byte_mem $end
$var wire 32 0" mem_out [31:0] $end
$var wire 32 1" mem_read_data [31:0] $end
$var wire 32 2" mem_read_data_byte_extend [31:0] $end
$var wire 8 3" mem_read_data_byte_select [7:0] $end
$var wire 1 ` mem_read_en $end
$var wire 1 4" mem_read_ex $end
$var wire 1 5" mem_read_id $end
$var wire 1 6" mem_read_mem $end
$var wire 1 7" mem_signextend_ex $end
$var wire 1 8" mem_signextend_id $end
$var wire 1 9" mem_signextend_mem $end
$var wire 1 :" mem_we_ex $end
$var wire 1 ;" mem_we_id $end
$var wire 32 <" mem_write_data [31:0] $end
$var wire 32 =" mem_write_data_ex [31:0] $end
$var wire 32 >" mem_write_data_id [31:0] $end
$var wire 4 ?" mem_write_en [3:0] $end
$var wire 1 @" movn_ex $end
$var wire 1 A" movn_id $end
$var wire 1 B" movz_ex $end
$var wire 1 C" movz_id $end
$var wire 32 D" pc [31:0] $end
$var wire 32 E" pc_id [31:0] $end
$var wire 32 F" pc_if [31:0] $end
$var wire 1 G" reg_we_cond_ex $end
$var wire 1 H" reg_we_ex $end
$var wire 1 I" reg_we_id $end
$var wire 1 J" reg_we_mem $end
$var wire 1 K" reg_we_wb $end
$var wire 5 L" reg_write_addr_ex [4:0] $end
$var wire 5 M" reg_write_addr_id [4:0] $end
$var wire 5 N" reg_write_addr_mem [4:0] $end
$var wire 5 O" reg_write_addr_wb [4:0] $end
$var wire 32 P" reg_write_data_mem [31:0] $end
$var wire 32 Q" reg_write_data_wb [31:0] $end
$var wire 5 R" rs_addr_id [4:0] $end
$var wire 32 S" rs_data_id [31:0] $end
$var wire 32 T" rs_data_jr [31:0] $end
$var wire 1 U" rst $end
$var wire 1 V" rst_id $end
$var wire 5 W" rt_addr_id [4:0] $end
$var wire 32 X" rt_data_id [31:0] $end
$var wire 1 Y" stall $end
$var wire 1 Z" stall_r $end
$scope module if_stage $end
$var wire 32 [" b_imm [31:0] $end
$var wire 1 H clk $end
$var wire 1 #" en $end
$var wire 26 \" instr_id [25:0] $end
$var wire 32 ]" j_addr [31:0] $end
$var wire 1 )" jump_branch $end
$var wire 1 *" jump_reg $end
$var wire 1 +" jump_target $end
$var wire 32 ^" pc [31:0] $end
$var wire 32 _" pc_id [31:0] $end
$var wire 32 `" pc_id_p4 [31:0] $end
$var wire 32 a" pc_next [31:0] $end
$var wire 32 b" rs_data [31:0] $end
$var wire 32 c" rs_data_jr [31:0] $end
$var wire 1 U" rst $end
$scope module pc_reg $end
$var wire 1 H clk $end
$var wire 32 d" d [31:0] $end
$var wire 1 #" en $end
$var wire 1 U" r $end
$var reg 32 e" q [31:0] $end
$upscope $end
$upscope $end
$scope module pc_if2id $end
$var wire 1 H clk $end
$var wire 32 f" d [31:0] $end
$var wire 1 #" en $end
$var wire 1 U" r $end
$var reg 32 g" q [31:0] $end
$upscope $end
$scope module instr_sav_dff $end
$var wire 1 H clk $end
$var wire 32 h" d [31:0] $end
$var wire 1 "" en $end
$var wire 1 U" r $end
$var reg 32 i" q [31:0] $end
$upscope $end
$scope module stall_f_dff $end
$var wire 1 H clk $end
$var wire 1 Y" d $end
$var wire 1 "" en $end
$var wire 1 U" r $end
$var reg 1 j" q $end
$upscope $end
$scope module d_stage $end
$var wire 32 k" alu_op_x [31:0] $end
$var wire 32 l" alu_op_y [31:0] $end
$var wire 32 m" alu_result_ex [31:0] $end
$var wire 1 n" forward_rs_ex $end
$var wire 1 o" forward_rs_mem $end
$var wire 1 p" forward_rt_ex $end
$var wire 1 q" forward_rt_mem $end
$var wire 6 r" funct [5:0] $end
$var wire 32 s" imm [31:0] $end
$var wire 32 t" imm_sign_extend [31:0] $end
$var wire 32 u" imm_upper [31:0] $end
$var wire 32 v" imm_zero_extend [31:0] $end
$var wire 16 w" immediate [15:0] $end
$var wire 32 x" instr [31:0] $end
$var wire 1 y" isALUImm $end
$var wire 1 z" isBEQ $end
$var wire 1 {" isBGEZAL $end
$var wire 1 |" isBGEZNL $end
$var wire 1 }" isBGTZ $end
$var wire 1 ~" isBLEZ $end
$var wire 1 !# isBLTZAL $end
$var wire 1 "# isBLTZNL $end
$var wire 1 ## isBNE $end
$var wire 1 $# isBranchLink $end
$var wire 1 %# isEqual $end
$var wire 1 &# isGeqZero $end
$var wire 1 '# isJ $end
$var wire 1 (# isJAL $end
$var wire 1 )# isJALR $end
$var wire 1 *# isJR $end
$var wire 1 +# isLINK $end
$var wire 1 ,# isLUI $end
$var wire 1 -# isLeqZero $end
$var wire 1 .# isSLL $end
$var wire 1 /# isSLLV $end
$var wire 1 0# isSRA $end
$var wire 1 1# isSRAV $end
$var wire 1 2# isSRL $end
$var wire 1 3# isSRLV $end
$var wire 1 4# isShift $end
$var wire 1 5# isShiftImm $end
$var wire 1 6# is_zero_extend $end
$var wire 32 7# jr_pc [31:0] $end
$var wire 26 8# jt_addr [25:0] $end
$var wire 1 )" jump_branch $end
$var wire 1 *" jump_reg $end
$var wire 1 +" jump_target $end
$var wire 1 ." mem_byte $end
$var wire 1 5" mem_read $end
$var wire 1 4" mem_read_ex $end
$var wire 1 8" mem_signextend $end
$var wire 1 ;" mem_we $end
$var wire 32 9# mem_write_data [31:0] $end
$var wire 1 A" movn $end
$var wire 1 C" movz $end
$var wire 6 :# op [5:0] $end
$var wire 32 ;# pc [31:0] $end
$var wire 5 <# rd_addr [4:0] $end
$var wire 1 =# read_from_rs $end
$var wire 1 ># read_from_rt $end
$var wire 1 I" reg_we $end
$var wire 1 H" reg_we_ex $end
$var wire 1 J" reg_we_mem $end
$var wire 5 ?# reg_write_addr [4:0] $end
$var wire 5 @# reg_write_addr_ex [4:0] $end
$var wire 5 A# reg_write_addr_mem [4:0] $end
$var wire 32 B# reg_write_data_mem [31:0] $end
$var wire 5 C# rs_addr [4:0] $end
$var wire 32 D# rs_data [31:0] $end
$var wire 32 E# rs_data_in [31:0] $end
$var wire 32 F# rs_data_signed [31:0] $end
$var wire 1 G# rs_mem_dependency $end
$var wire 5 H# rt_addr [4:0] $end
$var wire 32 I# rt_data [31:0] $end
$var wire 32 J# rt_data_in [31:0] $end
$var wire 1 K# rt_mem_dependency $end
$var wire 5 L# shamt [4:0] $end
$var wire 32 M# shift_amount [31:0] $end
$var wire 32 N# signed_zero [31:0] $end
$var wire 1 Y" stall $end
$var wire 1 O# use_imm $end
$var reg 4 P# alu_opcode [3:0] $end
$upscope $end
$scope module alu_op_x_id2ex $end
$var wire 1 U" ar $end
$var wire 1 H clk $end
$var wire 32 Q# d [31:0] $end
$var wire 1 "" en $end
$var wire 1 V" r $end
$var reg 32 R# q [31:0] $end
$upscope $end
$scope module alu_op_y_id2ex $end
$var wire 1 U" ar $end
$var wire 1 H clk $end
$var wire 32 S# d [31:0] $end
$var wire 1 "" en $end
$var wire 1 V" r $end
$var reg 32 T# q [31:0] $end
$upscope $end
$scope module alu_opcode_id2ex $end
$var wire 1 U" ar $end
$var wire 1 H clk $end
$var wire 4 U# d [3:0] $end
$var wire 1 "" en $end
$var wire 1 V" r $end
$var reg 4 V# q [3:0] $end
$upscope $end
$scope module movn $end
$var wire 1 U" ar $end
$var wire 1 H clk $end
$var wire 1 A" d $end
$var wire 1 "" en $end
$var wire 1 V" r $end
$var reg 1 W# q $end
$upscope $end
$scope module movz $end
$var wire 1 U" ar $end
$var wire 1 H clk $end
$var wire 1 C" d $end
$var wire 1 "" en $end
$var wire 1 V" r $end
$var reg 1 X# q $end
$upscope $end
$scope module mem_write_data_id2ex $end
$var wire 1 U" ar $end
$var wire 1 H clk $end
$var wire 32 Y# d [31:0] $end
$var wire 1 "" en $end
$var wire 1 V" r $end
$var reg 32 Z# q [31:0] $end
$upscope $end
$scope module mem_we_id2ex $end
$var wire 1 U" ar $end
$var wire 1 H clk $end
$var wire 1 ;" d $end
$var wire 1 "" en $end
$var wire 1 V" r $end
$var reg 1 [# q $end
$upscope $end
$scope module mem_read_id2ex $end
$var wire 1 U" ar $end
$var wire 1 H clk $end
$var wire 1 5" d $end
$var wire 1 "" en $end
$var wire 1 V" r $end
$var reg 1 \# q $end
$upscope $end
$scope module mem_byte_id2ex $end
$var wire 1 U" ar $end
$var wire 1 H clk $end
$var wire 1 ." d $end
$var wire 1 "" en $end
$var wire 1 V" r $end
$var reg 1 ]# q $end
$upscope $end
$scope module mem_signextend_id2ex $end
$var wire 1 U" ar $end
$var wire 1 H clk $end
$var wire 1 8" d $end
$var wire 1 "" en $end
$var wire 1 V" r $end
$var reg 1 ^# q $end
$upscope $end
$scope module reg_write_addr_id2ex $end
$var wire 1 U" ar $end
$var wire 1 H clk $end
$var wire 5 _# d [4:0] $end
$var wire 1 "" en $end
$var wire 1 V" r $end
$var reg 5 `# q [4:0] $end
$upscope $end
$scope module reg_we_id2ex $end
$var wire 1 U" ar $end
$var wire 1 H clk $end
$var wire 1 I" d $end
$var wire 1 "" en $end
$var wire 1 V" r $end
$var reg 1 a# q $end
$upscope $end
$scope module x_stage $end
$var wire 1 b# add_check $end
$var wire 1 c# add_neg_over $end
$var wire 1 d# add_pos_over $end
$var wire 1 e# alu_neg $end
$var wire 32 f# alu_op_x [31:0] $end
$var wire 32 g# alu_op_x_signed [31:0] $end
$var wire 32 h# alu_op_y [31:0] $end
$var wire 32 i# alu_op_y_signed [31:0] $end
$var wire 1 z alu_op_y_zero $end
$var wire 4 j# alu_opcode [3:0] $end
$var wire 1 } alu_overflow $end
$var wire 1 k# sub_check $end
$var wire 1 l# sub_neg_over $end
$var wire 1 m# sub_pos_over $end
$var wire 1 n# x_neg $end
$var wire 1 o# y_neg $end
$var reg 32 p# alu_result [31:0] $end
$upscope $end
$scope module alu_result_ex2mem $end
$var wire 1 H clk $end
$var wire 32 q# d [31:0] $end
$var wire 1 "" en $end
$var wire 1 U" r $end
$var reg 32 r# q [31:0] $end
$upscope $end
$scope module mem_read_ex2mem $end
$var wire 1 H clk $end
$var wire 1 4" d $end
$var wire 1 "" en $end
$var wire 1 U" r $end
$var reg 1 s# q $end
$upscope $end
$scope module mem_byte_ex2mem $end
$var wire 1 H clk $end
$var wire 1 -" d $end
$var wire 1 "" en $end
$var wire 1 U" r $end
$var reg 1 t# q $end
$upscope $end
$scope module mem_signextend_ex2mem $end
$var wire 1 H clk $end
$var wire 1 7" d $end
$var wire 1 "" en $end
$var wire 1 U" r $end
$var reg 1 u# q $end
$upscope $end
$scope module reg_write_addr_ex2mem $end
$var wire 1 H clk $end
$var wire 5 v# d [4:0] $end
$var wire 1 "" en $end
$var wire 1 U" r $end
$var reg 5 w# q [4:0] $end
$upscope $end
$scope module reg_we_ex2mem $end
$var wire 1 H clk $end
$var wire 1 H" d $end
$var wire 1 "" en $end
$var wire 1 U" r $end
$var reg 1 x# q $end
$upscope $end
$scope module reg_write_data_mem2wb $end
$var wire 1 H clk $end
$var wire 32 y# d [31:0] $end
$var wire 1 "" en $end
$var wire 1 U" r $end
$var reg 32 z# q [31:0] $end
$upscope $end
$scope module reg_write_addr_mem2wb $end
$var wire 1 H clk $end
$var wire 5 {# d [4:0] $end
$var wire 1 "" en $end
$var wire 1 U" r $end
$var reg 5 |# q [4:0] $end
$upscope $end
$scope module reg_we_mem2wb $end
$var wire 1 H clk $end
$var wire 1 J" d $end
$var wire 1 "" en $end
$var wire 1 U" r $end
$var reg 1 }# q $end
$upscope $end
$scope module w_stage $end
$var wire 1 H clk $end
$var wire 1 "" en $end
$var wire 1 K" reg_we $end
$var wire 5 ~# reg_write_addr [4:0] $end
$var wire 32 !$ reg_write_data [31:0] $end
$var wire 5 "$ rs_addr [4:0] $end
$var wire 32 #$ rs_data [31:0] $end
$var wire 5 $$ rt_addr [4:0] $end
$var wire 32 %$ rt_data [31:0] $end
$upscope $end
$upscope $end
$scope module mips_local_store $end
$var wire 12 &$ addr [11:0] $end
$var wire 1 H clk $end
$var wire 32 '$ din [31:0] $end
$var wire 4 ($ we [3:0] $end
$var reg 32 )$ dout [31:0] $end
$scope begin column[0] $end
$upscope $end
$scope begin column[1] $end
$upscope $end
$scope begin column[2] $end
$upscope $end
$scope begin column[3] $end
$upscope $end
$upscope $end
$upscope $end
$upscope $end
$enddefinitions $end
#0
$dumpvars
bx )$
b0 ($
b0 '$
b0 &$
bx %$
bx $$
bx #$
bx "$
b0 !$
b0 ~#
0}#
b0 |#
b0 {#
b0 z#
b0 y#
0x#
b0 w#
b0 v#
0u#
0t#
0s#
b0 r#
b0 q#
b0 p#
0o#
0n#
0m#
0l#
0k#
b0 j#
b0 i#
b0 h#
b0 g#
b0 f#
0e#
0d#
0c#
0b#
0a#
b0 `#
bx _#
0^#
0]#
0\#
0[#
b0 Z#
bx Y#
0X#
0W#
b0 V#
b1101 U#
b0 T#
bx S#
b0 R#
bx Q#
b1101 P#
xO#
b0 N#
b0xxxxx M#
bx L#
0K#
bx J#
bx I#
bx H#
0G#
bx F#
bx E#
bx D#
bx C#
b0 B#
b0 A#
b0 @#
bx ?#
x>#
x=#
bx <#
b0 ;#
bx :#
bx 9#
bx 8#
bx 7#
x6#
x5#
x4#
x3#
x2#
x1#
x0#
x/#
x.#
x-#
x,#
x+#
x*#
x)#
x(#
x'#
x&#
x%#
x$#
x##
x"#
x!#
x~"
x}"
x|"
x{"
xz"
xy"
bx x"
bx w"
b0xxxxxxxxxxxxxxxx v"
bx0000000000000000 u"
bx t"
bx s"
bx r"
0q"
0p"
0o"
0n"
b0 m"
bx l"
bx k"
0j"
b0 i"
bx h"
b0 g"
b0 f"
b0 e"
bx d"
bx c"
bx b"
bx a"
b100 `"
b0 _"
b0 ^"
b0xxxxxxxxxxxxxxxxxxxxxxxxxx00 ]"
bx \"
bx00 ["
0Z"
0Y"
bx X"
bx W"
0V"
0U"
bx T"
bx S"
bx R"
b0 Q"
b0 P"
b0 O"
b0 N"
bx M"
b0 L"
0K"
0J"
xI"
0H"
0G"
b0 F"
b0 E"
b0 D"
xC"
0B"
xA"
0@"
b0 ?"
bx >"
b0 ="
b0 <"
x;"
0:"
09"
x8"
07"
06"
x5"
04"
bx 3"
b0xxxxxxxx 2"
bx 1"
bx 0"
0/"
x."
0-"
b0 ,"
x+"
x*"
x)"
bx ("
b0 '"
b0 &"
bx %"
bx $"
1#"
1""
b0 !"
b0 ~
0}
b1101 |
b0 {
1z
bx y
b0 x
bx w
b0 v
bx u
bx t
xs
xr
bx q
b0 p
b0 o
b0 n
b0 m
b0 l
b0 k
b0 j
bx i
bx h
0g
bx f
bx e
bx d
b0 c
b0 b
b0 a
0`
bx _
b0 ^
bx ]
b0 \
b0 [
bx Z
b0xxxxxxxxxxxxxxxxxxxx10 Y
0X
0W
1V
0U
0T
bx S
b0 R
b0 Q
b0 P
bx O
0N
b0 M
b0 L
bx K
0J
b0 I
0H
b0 G
b1 F
b0 E
b0xxxxxxxxxxxxxxxxxxxx10 D
b11101000110010101110011011101000111001100101111011100110111010101100010001011110111010001100101011100110111010000101110011100100110010101110011011101010110110001110100 C
0B
b1 A
b1 @
b0 ?
b0 >
bx =
bx <
b0 ;
b100000000000000000 :
b1111101000 9
b111010001100101011100110111010001110011001011110111001101110101011000100010111101100010011101010110100101101100011001000010111101100001011100000111000000101110011010000110010101111000 8
bx 7
bx 6
bx 5
bx 4
b11101000110010101110011011101000111001100101111011100110111010101100010001011110111001101110100011100100110010101100001011011010111011101100001011101100110010100101110011101100110001101100100 3
b1 2
b0 1
00
b0 /
b0 .
b0 -
b0 ,
b0 +
b0 *
bx )
bx (
bx '
b0 &
b0 %
bx $
b0 #
b0 "
bx !
$end
#5000
04#
b0 M#
b0 w
b0 k"
b0 Q#
b100 a"
b100 d"
b0 F#
1&#
1-#
b0 ("
b0 7#
b0 T"
b0 c"
b0 D#
0)"
05#
06#
0$#
b10000000000000100000000000000000 y
b10000000000000100000000000000000 l"
b10000000000000100000000000000000 S#
b10000 M"
b10000 ?#
b10000 _#
b11111111111111100000000000001000 ["
b0 S"
b0 b"
b0 E#
b0 #$
0|"
1I"
0{"
0}"
0~"
0"#
0!#
0*#
0+"
0*"
0)#
0+#
0.#
02#
0/#
03#
00#
01#
b1100 P#
b1100 |
b1100 U#
b10000000000000100000000000000000 s"
0z"
0##
0'#
0(#
1O#
0=#
0>#
1,#
0y"
0;"
05"
0."
18"
b1111 :#
b0 R"
b0 C#
b0 "$
b10000 W"
b10000 H#
b10000 $$
b10000 <#
b0 L#
0A"
0C"
b10 r"
b1000000000000010 v"
b11111111111111111000000000000010 t"
b10000000000000100000000000000000 u"
b1000000000000010 w"
b100001000000000000010 8#
b100001000000000000010 \"
b10000100000000000001000 ]"
b111100000100001000000000000010 %"
b111100000100001000000000000010 x"
b111100000100001000000000000010 K
b111100000100001000000000000010 $
b111100000100001000000000000010 Z
b111100000100001000000000000010 $"
b111100000100001000000000000010 h"
bx S
bx )$
b0 u
b0 )
b0 i
b0 t
b0 (
b0 h
0s
0r
b0 q
10
1H
#10000
00
0H
#15000
bx )$
bx S
10
1H
#20000
1U"
00
0H
b0xxxxxxxxxxxxxxxxxxxx00 D
b0xxxxxxxxxxxxxxxxxxxx00 Y
1B
1g
#25000
0V
0%#
b10000000000000100000000000000000 I#
b10000000000000100000000000000000 >"
b10000000000000100000000000000000 9#
b10000000000000100000000000000000 Y#
bx ,
bx m
bx +
bx Q
bx -
bx n
0d#
1m#
1e#
b1000 a"
b1000 d"
b1 G
1H"
1p"
bx l
bx <"
bx '$
1o#
b10000000000000100000000000000000 p#
b10000000000000100000000000000000 ~
b10000000000000100000000000000000 m"
b10000000000000100000000000000000 q#
1W
b10000000000000100000000000000000 \
b10000000000000100000000000000000 ,"
b1 %
b1 [
bx S
bx )$
1a#
1G"
b10000 `#
b10000 L"
b10000 @#
b10000 v#
1^#
17"
bx Z#
bx ="
b1100 V#
b1100 {
b1100 j#
b10000000000000100000000000000000 T#
b10000000000000100000000000000000 i#
0z
b10000000000000100000000000000000 x
b10000000000000100000000000000000 h#
b111100000100001000000000000010 i"
b111100000100001000000000000010 '"
b100 e"
b100 F"
b100 ^"
b100 f"
b100 ^
b100 D"
10
1H
#30000
00
0H
b1111100111 1
b0xxxxxxxxxxxxxxxxxxxx01 D
b0xxxxxxxxxxxxxxxxxxxx01 Y
#35000
b1 y
b1 l"
b1 S#
16#
x%#
bx I#
bx >"
bx 9#
bx Y#
b10001 M"
b10001 ?#
b10001 _#
b100 ["
b11 P#
b11 |
b11 U#
b1 s"
1=#
0,#
1y"
b1101 :#
0p"
b10001 W"
b10001 H#
b10001 $$
b0 <#
b1 r"
b1 v"
b1 t"
b10000000000000000 u"
b1 w"
b100010000000000000001 8#
b100010000000000000001 \"
b10001000000000000000100 ]"
b1100 a"
b1100 d"
b10 G
b1000000000000010 ,
b1000000000000010 m
b10000000000000100000000000000000 +
b10000000000000100000000000000000 Q
b0 -
b0 n
b110100000100010000000000000001 %"
b110100000100010000000000000001 x"
b10 %
b10 [
b1 &"
b10000000000000100000000000000000 l
b10000000000000100000000000000000 <"
b10000000000000100000000000000000 '$
b10000000000000100000000000000000 P"
b10000000000000100000000000000000 B#
b10000000000000100000000000000000 y#
bx 2"
bx )$
bx S
b110100000100010000000000000001 K
b110100000100010000000000000001 $
b110100000100010000000000000001 Z
b110100000100010000000000000001 $"
b110100000100010000000000000001 h"
b1000 e"
b1000 F"
b1000 ^"
b1000 f"
b1000 ^
b1000 D"
b100 g"
b1000 `"
b100 E"
b100 _"
b100 ;#
b10000000000000100000000000000000 Z#
b10000000000000100000000000000000 ="
b10000000000000100000000000000000 r#
b10000000000000100000000000000000 !"
1u#
19"
b10000 w#
0q"
b10000 N"
b10000 A#
b10000 {#
1x#
1J"
10
1H
#40000
00
0H
b1111100110 1
#45000
b11111111111111110000000000000000 y
b11111111111111110000000000000000 l"
b11111111111111110000000000000000 S#
06#
b1000 M"
b1000 ?#
b1000 _#
b11111111111111111111111111111100 ["
b11111111111111110000000000000000 s"
b1100 P#
b1100 |
b1100 U#
1V
0=#
1,#
0>#
0y"
b1111 :#
b1000 W"
b1000 H#
b1000 $$
b11111 <#
b11111 L#
b111111 r"
b1111111111111111 v"
b11111111111111111111111111111111 t"
b11111111111111110000000000000000 u"
b1111111111111111 w"
b10001111111111111111 8#
b10001111111111111111 \"
b1000111111111111111100 ]"
bx ,
bx m
bx +
bx Q
bx -
bx n
0e#
b10000 a"
b10000 d"
b11 G
b111100000010001111111111111111 %"
b111100000010001111111111111111 x"
x%#
bx I#
bx >"
bx 9#
bx Y#
bx l
bx <"
bx '$
0m#
0o#
b1 p#
b1 ~
b1 m"
b1 q#
0U
0W
b1 \
b1 ,"
b10 &"
b11 %
b11 [
b111100000010001111111111111111 K
b111100000010001111111111111111 $
b111100000010001111111111111111 Z
b111100000010001111111111111111 $"
b111100000010001111111111111111 h"
bx S
bx )$
1}#
1K"
b10000 |#
b10000 O"
b10000 ~#
b10000000000000100000000000000000 z#
b10000000000000100000000000000000 Q"
b10000000000000100000000000000000 !$
b10001 `#
0p"
b10001 L"
b10001 @#
b10001 v#
bx Z#
bx ="
b11 V#
b11 {
b11 j#
b1 T#
b1 i#
b1 x
b1 h#
b110100000100010000000000000001 i"
b110100000100010000000000000001 '"
b1000 g"
b1100 `"
b1000 E"
b1000 _"
b1000 ;#
b1100 e"
b1100 F"
b1100 ^"
b1100 f"
b1100 ^
b1100 D"
10
1H
#50000
00
0H
b1111100101 1
#55000
b1111111111111101 y
b1111111111111101 l"
b1111111111111101 S#
16#
b11111111111111110000000000000000 w
b11111111111111110000000000000000 k"
b11111111111111110000000000000000 Q#
b11111111111111111111111111110100 ["
b11111111111111110000000000000000 F#
0&#
b11111111111111110000000000000000 ("
b11111111111111110000000000000000 7#
b11111111111111110000000000000000 T"
b11111111111111110000000000000000 c"
b11111111111111110000000000000000 D#
bx S"
bx b"
bx E#
bx #$
b11 P#
b11 |
b11 U#
b1111111111111101 s"
0V
1U
b100000000000000 "
b100000000000000 L
1=#
0,#
1y"
b1101 :#
1n"
b1000 R"
b1000 C#
b1000 "$
b111101 r"
b1111111111111101 v"
b11111111111111111111111111111101 t"
b11111111111111010000000000000000 u"
b1111111111111101 w"
b1000010001111111111111101 8#
b1000010001111111111111101 \"
b100001000111111111111110100 ]"
b10100 a"
b10100 d"
b100 G
0d#
1m#
1e#
b100000000000000 j
b100000000000000 *
b100000000000000 k
b100000000000000 b
b100000000000000 &
b100000000000000 c
b110101000010001111111111111101 %"
b110101000010001111111111111101 x"
b100 %
b100 [
b11 &"
1o#
b11111111111111110000000000000000 p#
b11111111111111110000000000000000 ~
b11111111111111110000000000000000 m"
b11111111111111110000000000000000 q#
b11111111111111110000000000000000 \
b11111111111111110000000000000000 ,"
1%#
b11111111111111110000000000000000 I#
b11111111111111110000000000000000 >"
b11111111111111110000000000000000 9#
b11111111111111110000000000000000 Y#
b1 P"
b1 B#
b1 y#
bx )$
bx S
b110101000010001111111111111101 K
b110101000010001111111111111101 $
b110101000010001111111111111101 Z
b110101000010001111111111111101 $"
b110101000010001111111111111101 h"
b10000 e"
b10000 F"
b10000 ^"
b10000 f"
b10000 ^
b10000 D"
b1100 g"
b10000 `"
b1100 E"
b1100 _"
b1100 ;#
b111100000010001111111111111111 i"
b111100000010001111111111111111 '"
b11111111111111110000000000000000 T#
b11111111111111110000000000000000 i#
b11111111111111110000000000000000 x
b11111111111111110000000000000000 h#
b1100 V#
b1100 {
b1100 j#
b1000 `#
1p"
b1000 L"
b1000 @#
b1000 v#
b1 r#
b1 !"
b10001 w#
b10001 N"
b10001 A#
b10001 {#
10
1H
#60000
00
0H
b1111100100 1
